{
    "/dist/theme/default/script.js": "/dist/theme/default/script.js",
    "/dist/bundle/fonts/fa-brands-400.eot": "/dist/bundle/fonts/fa-brands-400.eot",
    "/dist/bundle/fonts/fa-brands-400.svg": "/dist/bundle/fonts/fa-brands-400.svg",
    "/dist/bundle/fonts/fa-brands-400.ttf": "/dist/bundle/fonts/fa-brands-400.ttf",
    "/dist/bundle/fonts/fa-brands-400.woff": "/dist/bundle/fonts/fa-brands-400.woff",
    "/dist/bundle/fonts/fa-brands-400.woff2": "/dist/bundle/fonts/fa-brands-400.woff2",
    "/dist/bundle/fonts/fa-regular-400.eot": "/dist/bundle/fonts/fa-regular-400.eot",
    "/dist/bundle/fonts/fa-regular-400.svg": "/dist/bundle/fonts/fa-regular-400.svg",
    "/dist/bundle/fonts/fa-regular-400.ttf": "/dist/bundle/fonts/fa-regular-400.ttf",
    "/dist/bundle/fonts/fa-regular-400.woff": "/dist/bundle/fonts/fa-regular-400.woff",
    "/dist/bundle/fonts/fa-regular-400.woff2": "/dist/bundle/fonts/fa-regular-400.woff2",
    "/dist/bundle/fonts/fa-solid-900.eot": "/dist/bundle/fonts/fa-solid-900.eot",
    "/dist/bundle/fonts/fa-solid-900.svg": "/dist/bundle/fonts/fa-solid-900.svg",
    "/dist/bundle/fonts/fa-solid-900.ttf": "/dist/bundle/fonts/fa-solid-900.ttf",
    "/dist/bundle/fonts/fa-solid-900.woff": "/dist/bundle/fonts/fa-solid-900.woff",
    "/dist/bundle/fonts/fa-solid-900.woff2": "/dist/bundle/fonts/fa-solid-900.woff2",
    "/dist/bundle/fonts/lg.svg": "/dist/bundle/fonts/lg.svg",
    "/dist/bundle/fonts/lg.ttf": "/dist/bundle/fonts/lg.ttf",
    "/dist/bundle/fonts/lg.woff": "/dist/bundle/fonts/lg.woff",
    "/dist/bundle/img/loading.gif": "/dist/bundle/img/loading.gif",
    "/dist/bundle/img/video-play.png": "/dist/bundle/img/video-play.png",
    "/dist/bundle/img/vimeo-play.png": "/dist/bundle/img/vimeo-play.png",
    "/dist/bundle/img/youtube-play.png": "/dist/bundle/img/youtube-play.png",
    "/dist/bundle/js/pico-js.js": "/dist/bundle/js/pico-js.js",
    "/dist/bundle/js/pico-js.js.map": "/dist/bundle/js/pico-js.js.map",
    "/dist/bundle/js/jquery.min.js": "/dist/bundle/js/jquery.min.js",
    "/dist/bundle/js/moment.min.js": "/dist/bundle/js/moment.min.js",
    "/dist/bundle/js/moment.min.js.map": "/dist/bundle/js/moment.min.js.map",
    "/dist/bundle/js/gmaps.min.js": "/dist/bundle/js/gmaps.min.js",
    "/dist/bundle/js/gmaps.min.js.map": "/dist/bundle/js/gmaps.min.js.map",
    "/dist/bundle/js/uikit.min.js": "/dist/bundle/js/uikit.min.js",
    "/dist/bundle/js/uikit-core.min.js": "/dist/bundle/js/uikit-core.min.js",
    "/dist/bundle/js/parallax.min.js": "/dist/bundle/js/parallax.min.js",
    "/dist/bundle/js/flickity.pkgd.min.js": "/dist/bundle/js/flickity.pkgd.min.js",
    "/dist/bundle/js/lightgallery-all.min.js": "/dist/bundle/js/lightgallery-all.min.js",
    "/dist/bundle/js/lazysizes.min.js": "/dist/bundle/js/lazysizes.min.js",
    "/dist/bundle/js/ls.parent-fit.min.js": "/dist/bundle/js/ls.parent-fit.min.js",
    "/dist/bundle/js/ls.rias.min.js": "/dist/bundle/js/ls.rias.min.js",
    "/dist/bundle/js/ls.optimumx.min.js": "/dist/bundle/js/ls.optimumx.min.js",
    "/dist/bundle/js/chosen.jquery.min.js": "/dist/bundle/js/chosen.jquery.min.js",
    "/dist/bundle/js/jquery.bootstrap-touchspin.js": "/dist/bundle/js/jquery.bootstrap-touchspin.js",
    "/dist/bundle/js/bootstrap-datetimepicker.min.js": "/dist/bundle/js/bootstrap-datetimepicker.min.js",
    "/dist/bundle/js/markerclustererplus.min.js": "/dist/bundle/js/markerclustererplus.min.js",
    "/dist/bundle/js/markerclustererplus.min.js.map": "/dist/bundle/js/markerclustererplus.min.js.map",
    "/dist/bundle/js/moment/af.js": "/dist/bundle/js/moment/af.js",
    "/dist/bundle/js/moment/ar-dz.js": "/dist/bundle/js/moment/ar-dz.js",
    "/dist/bundle/js/moment/ar-kw.js": "/dist/bundle/js/moment/ar-kw.js",
    "/dist/bundle/js/moment/ar-ly.js": "/dist/bundle/js/moment/ar-ly.js",
    "/dist/bundle/js/moment/ar-ma.js": "/dist/bundle/js/moment/ar-ma.js",
    "/dist/bundle/js/moment/ar-sa.js": "/dist/bundle/js/moment/ar-sa.js",
    "/dist/bundle/js/moment/ar-tn.js": "/dist/bundle/js/moment/ar-tn.js",
    "/dist/bundle/js/moment/ar.js": "/dist/bundle/js/moment/ar.js",
    "/dist/bundle/js/moment/az.js": "/dist/bundle/js/moment/az.js",
    "/dist/bundle/js/moment/be.js": "/dist/bundle/js/moment/be.js",
    "/dist/bundle/js/moment/bg.js": "/dist/bundle/js/moment/bg.js",
    "/dist/bundle/js/moment/bm.js": "/dist/bundle/js/moment/bm.js",
    "/dist/bundle/js/moment/bn-bd.js": "/dist/bundle/js/moment/bn-bd.js",
    "/dist/bundle/js/moment/bn.js": "/dist/bundle/js/moment/bn.js",
    "/dist/bundle/js/moment/bo.js": "/dist/bundle/js/moment/bo.js",
    "/dist/bundle/js/moment/br.js": "/dist/bundle/js/moment/br.js",
    "/dist/bundle/js/moment/bs.js": "/dist/bundle/js/moment/bs.js",
    "/dist/bundle/js/moment/ca.js": "/dist/bundle/js/moment/ca.js",
    "/dist/bundle/js/moment/cs.js": "/dist/bundle/js/moment/cs.js",
    "/dist/bundle/js/moment/cv.js": "/dist/bundle/js/moment/cv.js",
    "/dist/bundle/js/moment/cy.js": "/dist/bundle/js/moment/cy.js",
    "/dist/bundle/js/moment/da.js": "/dist/bundle/js/moment/da.js",
    "/dist/bundle/js/moment/de-at.js": "/dist/bundle/js/moment/de-at.js",
    "/dist/bundle/js/moment/de-ch.js": "/dist/bundle/js/moment/de-ch.js",
    "/dist/bundle/js/moment/de.js": "/dist/bundle/js/moment/de.js",
    "/dist/bundle/js/moment/dv.js": "/dist/bundle/js/moment/dv.js",
    "/dist/bundle/js/moment/el.js": "/dist/bundle/js/moment/el.js",
    "/dist/bundle/js/moment/en-au.js": "/dist/bundle/js/moment/en-au.js",
    "/dist/bundle/js/moment/en-ca.js": "/dist/bundle/js/moment/en-ca.js",
    "/dist/bundle/js/moment/en-gb.js": "/dist/bundle/js/moment/en-gb.js",
    "/dist/bundle/js/moment/en-ie.js": "/dist/bundle/js/moment/en-ie.js",
    "/dist/bundle/js/moment/en-il.js": "/dist/bundle/js/moment/en-il.js",
    "/dist/bundle/js/moment/en-in.js": "/dist/bundle/js/moment/en-in.js",
    "/dist/bundle/js/moment/en-nz.js": "/dist/bundle/js/moment/en-nz.js",
    "/dist/bundle/js/moment/en-sg.js": "/dist/bundle/js/moment/en-sg.js",
    "/dist/bundle/js/moment/eo.js": "/dist/bundle/js/moment/eo.js",
    "/dist/bundle/js/moment/es-do.js": "/dist/bundle/js/moment/es-do.js",
    "/dist/bundle/js/moment/es-mx.js": "/dist/bundle/js/moment/es-mx.js",
    "/dist/bundle/js/moment/es-us.js": "/dist/bundle/js/moment/es-us.js",
    "/dist/bundle/js/moment/es.js": "/dist/bundle/js/moment/es.js",
    "/dist/bundle/js/moment/et.js": "/dist/bundle/js/moment/et.js",
    "/dist/bundle/js/moment/eu.js": "/dist/bundle/js/moment/eu.js",
    "/dist/bundle/js/moment/fa.js": "/dist/bundle/js/moment/fa.js",
    "/dist/bundle/js/moment/fi.js": "/dist/bundle/js/moment/fi.js",
    "/dist/bundle/js/moment/fil.js": "/dist/bundle/js/moment/fil.js",
    "/dist/bundle/js/moment/fo.js": "/dist/bundle/js/moment/fo.js",
    "/dist/bundle/js/moment/fr-ca.js": "/dist/bundle/js/moment/fr-ca.js",
    "/dist/bundle/js/moment/fr-ch.js": "/dist/bundle/js/moment/fr-ch.js",
    "/dist/bundle/js/moment/fr.js": "/dist/bundle/js/moment/fr.js",
    "/dist/bundle/js/moment/fy.js": "/dist/bundle/js/moment/fy.js",
    "/dist/bundle/js/moment/ga.js": "/dist/bundle/js/moment/ga.js",
    "/dist/bundle/js/moment/gd.js": "/dist/bundle/js/moment/gd.js",
    "/dist/bundle/js/moment/gl.js": "/dist/bundle/js/moment/gl.js",
    "/dist/bundle/js/moment/gom-deva.js": "/dist/bundle/js/moment/gom-deva.js",
    "/dist/bundle/js/moment/gom-latn.js": "/dist/bundle/js/moment/gom-latn.js",
    "/dist/bundle/js/moment/gu.js": "/dist/bundle/js/moment/gu.js",
    "/dist/bundle/js/moment/he.js": "/dist/bundle/js/moment/he.js",
    "/dist/bundle/js/moment/hi.js": "/dist/bundle/js/moment/hi.js",
    "/dist/bundle/js/moment/hr.js": "/dist/bundle/js/moment/hr.js",
    "/dist/bundle/js/moment/hu.js": "/dist/bundle/js/moment/hu.js",
    "/dist/bundle/js/moment/hy-am.js": "/dist/bundle/js/moment/hy-am.js",
    "/dist/bundle/js/moment/id.js": "/dist/bundle/js/moment/id.js",
    "/dist/bundle/js/moment/is.js": "/dist/bundle/js/moment/is.js",
    "/dist/bundle/js/moment/it-ch.js": "/dist/bundle/js/moment/it-ch.js",
    "/dist/bundle/js/moment/it.js": "/dist/bundle/js/moment/it.js",
    "/dist/bundle/js/moment/ja.js": "/dist/bundle/js/moment/ja.js",
    "/dist/bundle/js/moment/jv.js": "/dist/bundle/js/moment/jv.js",
    "/dist/bundle/js/moment/ka.js": "/dist/bundle/js/moment/ka.js",
    "/dist/bundle/js/moment/kk.js": "/dist/bundle/js/moment/kk.js",
    "/dist/bundle/js/moment/km.js": "/dist/bundle/js/moment/km.js",
    "/dist/bundle/js/moment/kn.js": "/dist/bundle/js/moment/kn.js",
    "/dist/bundle/js/moment/ko.js": "/dist/bundle/js/moment/ko.js",
    "/dist/bundle/js/moment/ku.js": "/dist/bundle/js/moment/ku.js",
    "/dist/bundle/js/moment/ky.js": "/dist/bundle/js/moment/ky.js",
    "/dist/bundle/js/moment/lb.js": "/dist/bundle/js/moment/lb.js",
    "/dist/bundle/js/moment/lo.js": "/dist/bundle/js/moment/lo.js",
    "/dist/bundle/js/moment/lt.js": "/dist/bundle/js/moment/lt.js",
    "/dist/bundle/js/moment/lv.js": "/dist/bundle/js/moment/lv.js",
    "/dist/bundle/js/moment/me.js": "/dist/bundle/js/moment/me.js",
    "/dist/bundle/js/moment/mi.js": "/dist/bundle/js/moment/mi.js",
    "/dist/bundle/js/moment/mk.js": "/dist/bundle/js/moment/mk.js",
    "/dist/bundle/js/moment/ml.js": "/dist/bundle/js/moment/ml.js",
    "/dist/bundle/js/moment/mn.js": "/dist/bundle/js/moment/mn.js",
    "/dist/bundle/js/moment/mr.js": "/dist/bundle/js/moment/mr.js",
    "/dist/bundle/js/moment/ms-my.js": "/dist/bundle/js/moment/ms-my.js",
    "/dist/bundle/js/moment/ms.js": "/dist/bundle/js/moment/ms.js",
    "/dist/bundle/js/moment/mt.js": "/dist/bundle/js/moment/mt.js",
    "/dist/bundle/js/moment/my.js": "/dist/bundle/js/moment/my.js",
    "/dist/bundle/js/moment/nb.js": "/dist/bundle/js/moment/nb.js",
    "/dist/bundle/js/moment/ne.js": "/dist/bundle/js/moment/ne.js",
    "/dist/bundle/js/moment/nl-be.js": "/dist/bundle/js/moment/nl-be.js",
    "/dist/bundle/js/moment/nl.js": "/dist/bundle/js/moment/nl.js",
    "/dist/bundle/js/moment/nn.js": "/dist/bundle/js/moment/nn.js",
    "/dist/bundle/js/moment/oc-lnc.js": "/dist/bundle/js/moment/oc-lnc.js",
    "/dist/bundle/js/moment/pa-in.js": "/dist/bundle/js/moment/pa-in.js",
    "/dist/bundle/js/moment/pl.js": "/dist/bundle/js/moment/pl.js",
    "/dist/bundle/js/moment/pt-br.js": "/dist/bundle/js/moment/pt-br.js",
    "/dist/bundle/js/moment/pt.js": "/dist/bundle/js/moment/pt.js",
    "/dist/bundle/js/moment/ro.js": "/dist/bundle/js/moment/ro.js",
    "/dist/bundle/js/moment/ru.js": "/dist/bundle/js/moment/ru.js",
    "/dist/bundle/js/moment/sd.js": "/dist/bundle/js/moment/sd.js",
    "/dist/bundle/js/moment/se.js": "/dist/bundle/js/moment/se.js",
    "/dist/bundle/js/moment/si.js": "/dist/bundle/js/moment/si.js",
    "/dist/bundle/js/moment/sk.js": "/dist/bundle/js/moment/sk.js",
    "/dist/bundle/js/moment/sl.js": "/dist/bundle/js/moment/sl.js",
    "/dist/bundle/js/moment/sq.js": "/dist/bundle/js/moment/sq.js",
    "/dist/bundle/js/moment/sr-cyrl.js": "/dist/bundle/js/moment/sr-cyrl.js",
    "/dist/bundle/js/moment/sr.js": "/dist/bundle/js/moment/sr.js",
    "/dist/bundle/js/moment/ss.js": "/dist/bundle/js/moment/ss.js",
    "/dist/bundle/js/moment/sv.js": "/dist/bundle/js/moment/sv.js",
    "/dist/bundle/js/moment/sw.js": "/dist/bundle/js/moment/sw.js",
    "/dist/bundle/js/moment/ta.js": "/dist/bundle/js/moment/ta.js",
    "/dist/bundle/js/moment/te.js": "/dist/bundle/js/moment/te.js",
    "/dist/bundle/js/moment/tet.js": "/dist/bundle/js/moment/tet.js",
    "/dist/bundle/js/moment/tg.js": "/dist/bundle/js/moment/tg.js",
    "/dist/bundle/js/moment/th.js": "/dist/bundle/js/moment/th.js",
    "/dist/bundle/js/moment/tk.js": "/dist/bundle/js/moment/tk.js",
    "/dist/bundle/js/moment/tl-ph.js": "/dist/bundle/js/moment/tl-ph.js",
    "/dist/bundle/js/moment/tlh.js": "/dist/bundle/js/moment/tlh.js",
    "/dist/bundle/js/moment/tr.js": "/dist/bundle/js/moment/tr.js",
    "/dist/bundle/js/moment/tzl.js": "/dist/bundle/js/moment/tzl.js",
    "/dist/bundle/js/moment/tzm-latn.js": "/dist/bundle/js/moment/tzm-latn.js",
    "/dist/bundle/js/moment/tzm.js": "/dist/bundle/js/moment/tzm.js",
    "/dist/bundle/js/moment/ug-cn.js": "/dist/bundle/js/moment/ug-cn.js",
    "/dist/bundle/js/moment/uk.js": "/dist/bundle/js/moment/uk.js",
    "/dist/bundle/js/moment/ur.js": "/dist/bundle/js/moment/ur.js",
    "/dist/bundle/js/moment/uz-latn.js": "/dist/bundle/js/moment/uz-latn.js",
    "/dist/bundle/js/moment/uz.js": "/dist/bundle/js/moment/uz.js",
    "/dist/bundle/js/moment/vi.js": "/dist/bundle/js/moment/vi.js",
    "/dist/bundle/js/moment/x-pseudo.js": "/dist/bundle/js/moment/x-pseudo.js",
    "/dist/bundle/js/moment/yo.js": "/dist/bundle/js/moment/yo.js",
    "/dist/bundle/js/moment/zh-cn.js": "/dist/bundle/js/moment/zh-cn.js",
    "/dist/bundle/js/moment/zh-hk.js": "/dist/bundle/js/moment/zh-hk.js",
    "/dist/bundle/js/moment/zh-mo.js": "/dist/bundle/js/moment/zh-mo.js",
    "/dist/bundle/js/moment/zh-tw.js": "/dist/bundle/js/moment/zh-tw.js"
}
