<?xml version="1.0" standalone="no"?>
<!DOCTYPE svg PUBLIC "-//W3C//DTD SVG 20010904//EN"
 "http://www.w3.org/TR/2001/REC-SVG-20010904/DTD/svg10.dtd">
<svg version="1.0" xmlns="http://www.w3.org/2000/svg"
 width="1600.000000pt" height="1600.000000pt" viewBox="0 0 1600.000000 1600.000000"
 preserveAspectRatio="xMidYMid meet">
<metadata>
Created by potrace 1.11, written by Peter Selinger 2001-2013
</metadata>
<g transform="translate(0.000000,1600.000000) scale(0.100000,-0.100000)"
fill="#000000" stroke="none">
<path d="M2995 15729 c-55 -5 -156 -18 -225 -30 -1363 -227 -2393 -1352 -2500
-2729 -8 -105 -10 -1496 -8 -5065 3 -4626 5 -4927 21 -5034 55 -356 140 -636
282 -926 413 -844 1188 -1442 2105 -1625 294 -59 -59 -55 5330 -55 5389 0
5036 -4 5330 55 623 124 1209 455 1627 919 371 413 617 898 723 1431 59 294
55 -59 55 5330 0 5389 4 5036 -55 5330 -52 260 -129 487 -245 725 -297 606
-774 1083 -1380 1380 -290 142 -570 227 -926 282 -107 16 -404 17 -5074 19
-2747 1 -5005 -3 -5060 -7z m5555 -1774 c915 -89 1749 -362 2520 -825 98 -59
181 -105 184 -103 3 3 42 -24 88 -59 92 -72 456 -345 530 -397 27 -19 44 -39
41 -45 -4 -6 -614 -818 -1357 -1806 -742 -987 -1503 -2000 -1692 -2251 l-342
-456 1447 -1924 c795 -1059 1539 -2046 1652 -2194 113 -149 226 -300 252 -336
l46 -66 -177 -155 c-183 -160 -421 -347 -450 -353 -9 -2 -93 -50 -187 -106
-1141 -690 -2494 -971 -3840 -798 -824 106 -1646 397 -2342 830 -62 39 -121
72 -132 74 -11 2 -61 36 -113 76 -51 40 -127 95 -168 123 -142 93 -400 289
-400 303 0 12 1249 1681 2909 3886 439 583 464 619 451 640 -7 12 -650 870
-1429 1907 -779 1037 -1434 1910 -1455 1940 -22 30 -139 186 -261 345 -121
160 -224 295 -228 301 -4 8 65 68 182 160 309 244 462 359 471 357 5 -2 51 24
102 56 246 154 649 359 925 470 594 238 1200 375 1863 421 185 13 717 4 910
-15z m3936 -2017 c1105 -1275 1629 -2929 1448 -4569 -111 -1013 -479 -1977
-1067 -2802 -100 -140 -282 -371 -374 -475 l-38 -43 -1529 1977 c-841 1088
-1529 1983 -1529 1988 0 12 2995 4016 3003 4016 3 0 42 -42 86 -92z m-7416
-1943 c838 -1083 1523 -1975 1523 -1981 0 -8 -2967 -3980 -2995 -4009 -11 -11
-45 24 -205 215 -1072 1276 -1549 2959 -1313 4633 139 984 531 1932 1131 2730
132 174 321 399 329 390 4 -4 693 -894 1530 -1978z"/>
<path d="M7790 13138 c-454 -15 -934 -103 -1387 -254 -311 -103 -724 -291
-1005 -458 l-127 -76 382 -508 c1766 -2348 2352 -3121 2357 -3115 29 33 2720
3614 2720 3620 0 28 -534 308 -775 407 -704 289 -1393 411 -2165 384z"/>
<path d="M7004 5963 c-549 -730 -1164 -1547 -1366 -1816 l-367 -487 127 -76
c590 -350 1290 -591 1970 -678 299 -39 745 -50 1032 -26 512 42 1031 166 1518
361 243 98 812 392 812 421 0 6 -2689 3586 -2720 3621 -3 4 -456 -590 -1006
-1320z"/>
<path d="M11430 9338 c-531 -715 -964 -1304 -963 -1308 2 -7 1942 -2539 1963
-2564 9 -9 82 120 174 309 293 599 463 1254 506 1945 53 861 -116 1712 -502
2530 -61 128 -184 358 -202 377 -8 9 -245 -304 -976 -1289z"/>
<path d="M3507 10468 c-319 -589 -516 -1197 -597 -1848 -132 -1050 72 -2107
593 -3078 45 -83 85 -151 89 -150 5 2 1509 2009 1854 2474 l82 112 -984 1283
c-542 706 -987 1285 -989 1287 -1 2 -23 -34 -48 -80z"/>
</g>
</svg>
